digraph G {
node[shape="rectangle"];
node_1230 [fontname=monospace, style=bold, fillcolor="orangered", style=filled, label="chance for R: 1\nR_B\nR_B\nR__\n"];
node_377 [fontname=monospace, color="black", fontcolor="black", label="red's turn\nchance for R: 0.75\nRRB\n_B_\n___\n"];
node_17 [fontname=monospace, color="red", fontcolor="red", label="red's turn\nchance for R: 1\nR__\n___\n__B\n"];
node_2417 [fontname=monospace, color="red", fontcolor="red", label="red's turn\nchance for R: 1\nRBB\nR_R\n__B\n"];
node_2543 [fontname=monospace, color="red", fontcolor="red", label="red's turn\nchance for R: 1\nRRB\nBR_\n__B\n"];
node_1365 [fontname=monospace, style=bold, fillcolor="orangered", style=filled, label="chance for R: 1\nRRR\n_B_\nB__\n"];
node_2591 [fontname=monospace, color="red", fontcolor="red", label="red's turn\nchance for R: 1\nRRB\n_R_\nB_B\n"];
node_2352 [fontname=monospace, color="red", fontcolor="red", label="red's turn\nchance for R: 1\nRBR\nBR_\n_B_\n"];
node_3957 [fontname=monospace, style=bold, fillcolor="orangered", style=filled, label="chance for R: 1\nRBB\nRRR\nB__\n"];
node_5049 [fontname=monospace, color="red", fontcolor="red", label="red's turn\nchance for R: 1\nRBR\nRRB\n_BB\n"];
node_2350 [fontname=monospace, color="red", fontcolor="red", label="red's turn\nchance for R: 1\nRBR\nBRB\n___\n"];
node_4165 [fontname=monospace, style=bold, fillcolor="orangered", style=filled, label="chance for R: 1\nR_B\nRRR\nB_B\n"];
node_4082 [fontname=monospace, color="black", fontcolor="black", label="blue's turn\nchance for R: 0\nRRB\nBBR\nR__\n"];
node_12 [fontname=monospace, color="red", fontcolor="red", label="red's turn\nchance for R: 1\nR__\nB__\n___\n"];
node_5426 [fontname=monospace, style=bold, fillcolor="orangered", style=filled, label="chance for R: 1\nRRB\nBRR\nBBR\n"];
node_1295 [fontname=monospace, style=bold, fillcolor="orangered", style=filled, label="chance for R: 1\nRRR\nB__\nB__\n"];
node_385 [fontname=monospace, color="red", fontcolor="red", label="red's turn\nchance for R: 1\nR_B\nR__\n_B_\n"];
node_470 [fontname=monospace, color="red", fontcolor="red", label="red's turn\nchance for R: 1\nR_R\n__B\n_B_\n"];
node_1118 [fontname=monospace, color="red", fontcolor="red", label="blue's turn\nchance for R: 1\nRBR\n___\nR_B\n"];
node_2410 [fontname=monospace, color="red", fontcolor="red", label="red's turn\nchance for R: 1\nRBB\nRRB\n___\n"];
node_1226 [fontname=monospace, style=bold, fillcolor="orangered", style=filled, label="chance for R: 1\nR_B\nRB_\nR__\n"];
node_420 [fontname=monospace, color="red", fontcolor="red", label="red's turn\nchance for R: 1\nR_R\nB__\n_B_\n"];
node_416 [fontname=monospace, color="red", fontcolor="red", label="red's turn\nchance for R: 1\nRR_\nB__\n__B\n"];
node_2541 [fontname=monospace, color="red", fontcolor="red", label="red's turn\nchance for R: 1\nRRB\nBR_\nB__\n"];
node_103 [fontname=monospace, color="black", fontcolor="black", label="blue's turn\nchance for R: 0.9583333333333334\nRR_\n_B_\n___\n"];
node_2411 [fontname=monospace, color="red", fontcolor="red", label="red's turn\nchance for R: 1\nRBB\nRR_\nB__\n"];
node_4104 [fontname=monospace, style=bold, fillcolor="orangered", style=filled, label="chance for R: 1\nRRB\nRB_\nRB_\n"];
node_2569 [fontname=monospace, color="red", fontcolor="red", label="red's turn\nchance for R: 1\nRRB\n_B_\nR_B\n"];
node_5045 [fontname=monospace, color="red", fontcolor="red", label="red's turn\nchance for R: 1\nRBR\nRRB\nBB_\n"];
node_1195 [fontname=monospace, color="red", fontcolor="red", label="blue's turn\nchance for R: 1\nRRB\nBR_\n___\n"];
node_1233 [fontname=monospace, color="red", fontcolor="red", label="blue's turn\nchance for R: 1\nR_B\nRR_\nB__\n"];
node_125 [fontname=monospace, color="red", fontcolor="red", label="blue's turn\nchance for R: 1\nR_R\n___\n_B_\n"];
node_1465 [fontname=monospace, style=bold, fillcolor="orangered", style=filled, label="chance for R: 1\nRRR\n___\nBB_\n"];
node_3963 [fontname=monospace, style=bold, fillcolor="orangered", style=filled, label="chance for R: 1\nRBB\nRRR\n__B\n"];
node_3950 [fontname=monospace, style=bold, fillcolor="orangered", style=filled, label="chance for R: 1\nRBR\nR__\nRBB\n"];
node_4100 [fontname=monospace, style=bold, fillcolor="orangered", style=filled, label="chance for R: 1\nRRB\nRBB\nR__\n"];
node_5101 [fontname=monospace, color="black", fontcolor="black", label="red's turn\nchance for R: 0\nRRB\nBBR\nR_B\n"];
node_4004 [fontname=monospace, style=bold, fillcolor="orangered", style=filled, label="chance for R: 1\nRB_\nRRR\nB_B\n"];
node_466 [fontname=monospace, color="red", fontcolor="red", label="red's turn\nchance for R: 1\nRR_\n__B\nB__\n"];
node_1211 [fontname=monospace, color="red", fontcolor="red", label="blue's turn\nchance for R: 1\nRRB\n_R_\nB__\n"];
node_4159 [fontname=monospace, style=bold, fillcolor="orangered", style=filled, label="chance for R: 1\nR_B\nRRB\nRB_\n"];
node_444 [fontname=monospace, color="red", fontcolor="red", label="red's turn\nchance for R: 1\nRR_\n_B_\n_B_\n"];
node_2619 [fontname=monospace, color="red", fontcolor="red", label="red's turn\nchance for R: 1\nR_B\nR_R\nB_B\n"];
node_2389 [fontname=monospace, color="red", fontcolor="red", label="red's turn\nchance for R: 1\nRBR\n_RB\nB__\n"];
node_343 [fontname=monospace, color="red", fontcolor="red", label="red's turn\nchance for R: 1\nRB_\nR__\nB__\n"];
node_111 [fontname=monospace, color="red", fontcolor="red", label="blue's turn\nchance for R: 1\nR_R\n__B\n___\n"];
node_2379 [fontname=monospace, color="red", fontcolor="red", label="red's turn\nchance for R: 1\nRBR\n_B_\nR_B\n"];
node_345 [fontname=monospace, color="red", fontcolor="red", label="red's turn\nchance for R: 1\nRB_\nR__\n__B\n"];
node_1495 [fontname=monospace, style=bold, fillcolor="orangered", style=filled, label="chance for R: 1\nRRR\n___\n_BB\n"];
node_1141 [fontname=monospace, color="red", fontcolor="red", label="blue's turn\nchance for R: 1\nRB_\nRR_\n__B\n"];
node_3960 [fontname=monospace, style=bold, fillcolor="orangered", style=filled, label="chance for R: 1\nRBB\nRRR\n_B_\n"];
node_1420 [fontname=monospace, style=bold, fillcolor="orangered", style=filled, label="chance for R: 1\nRRR\n__B\nB__\n"];
node_3880 [fontname=monospace, style=bold, fillcolor="orangered", style=filled, label="chance for R: 1\nRBR\nBR_\nR_B\n"];
node_413 [fontname=monospace, color="red", fontcolor="red", label="red's turn\nchance for R: 1\nRR_\nB_B\n___\n"];
node_4139 [fontname=monospace, style=bold, fillcolor="orangered", style=filled, label="chance for R: 1\nRRB\n_R_\nBRB\n"];
node_2412 [fontname=monospace, color="red", fontcolor="red", label="red's turn\nchance for R: 1\nRBB\nRR_\n_B_\n"];
node_4158 [fontname=monospace, style=bold, fillcolor="orangered", style=filled, label="chance for R: 1\nR_B\nRRB\nB_R\n"];
node_2407 [fontname=monospace, color="red", fontcolor="red", label="red's turn\nchance for R: 1\nRBR\n_R_\n_BB\n"];
node_3876 [fontname=monospace, color="red", fontcolor="red", label="blue's turn\nchance for R: 1\nRBR\nBRR\n_B_\n"];
node_1120 [fontname=monospace, color="red", fontcolor="red", label="blue's turn\nchance for R: 1\nRBB\nRR_\n___\n"];
node_1133 [fontname=monospace, color="red", fontcolor="red", label="blue's turn\nchance for R: 1\nRB_\nRR_\nB__\n"];
node_1285 [fontname=monospace, style=bold, fillcolor="orangered", style=filled, label="chance for R: 1\nRRR\nBB_\n___\n"];
node_4150 [fontname=monospace, style=bold, fillcolor="orangered", style=filled, label="chance for R: 1\nR_B\nRBR\nR_B\n"];
node_3952 [fontname=monospace, style=bold, fillcolor="orangered", style=filled, label="chance for R: 1\nRBR\n_R_\nRBB\n"];
node_15 [fontname=monospace, color="red", fontcolor="red", label="red's turn\nchance for R: 1\nR__\n___\nB__\n"];
node_117 [fontname=monospace, color="red", fontcolor="red", label="blue's turn\nchance for R: 1\nRR_\n___\nB__\n"];
node_339 [fontname=monospace, color="red", fontcolor="red", label="red's turn\nchance for R: 1\nRBR\n___\n__B\n"];
node_3921 [fontname=monospace, color="red", fontcolor="red", label="blue's turn\nchance for R: 1\nRBR\nRRB\n_B_\n"];
node_4081 [fontname=monospace, style=bold, fillcolor="orangered", style=filled, label="chance for R: 1\nRRB\nBR_\n_RB\n"];
node_4163 [fontname=monospace, style=bold, fillcolor="orangered", style=filled, label="chance for R: 1\nR_B\nRRR\nBB_\n"];
node_4078 [fontname=monospace, style=bold, fillcolor="orangered", style=filled, label="chance for R: 1\nRRB\nBR_\n_BR\n"];
node_5427 [fontname=monospace, style=bold, fillcolor="orangered", style=filled, label="chance for R: 1\nRRB\nBRR\nBRB\n"];
node_2616 [fontname=monospace, color="red", fontcolor="red", label="red's turn\nchance for R: 1\nR_B\nRR_\nBB_\n"];
node_96 [fontname=monospace, color="red", fontcolor="red", label="blue's turn\nchance for R: 1\nRR_\nB__\n___\n"];
node_2622 [fontname=monospace, color="red", fontcolor="red", label="red's turn\nchance for R: 1\nR_B\nRR_\n_BB\n"];
node_418 [fontname=monospace, color="red", fontcolor="red", label="red's turn\nchance for R: 1\nR_R\nB_B\n___\n"];
node_487 [fontname=monospace, color="red", fontcolor="red", label="red's turn\nchance for R: 1\nR_R\n___\nB_B\n"];
node_341 [fontname=monospace, color="red", fontcolor="red", label="red's turn\nchance for R: 1\nRB_\nRB_\n___\n"];
node_2610 [fontname=monospace, color="red", fontcolor="red", label="red's turn\nchance for R: 1\nR_B\nRRB\n_B_\n"];
node_376 [fontname=monospace, color="red", fontcolor="red", label="red's turn\nchance for R: 1\nRRB\nB__\n___\n"];
node_445 [fontname=monospace, color="red", fontcolor="red", label="red's turn\nchance for R: 1\nRR_\n_B_\n__B\n"];
node_2361 [fontname=monospace, color="red", fontcolor="red", label="red's turn\nchance for R: 1\nRBR\nB__\nR_B\n"];
node_415 [fontname=monospace, color="red", fontcolor="red", label="red's turn\nchance for R: 1\nRR_\nB__\n_B_\n"];
node_2623 [fontname=monospace, color="red", fontcolor="red", label="red's turn\nchance for R: 1\nR_B\nR_R\n_BB\n"];
node_2542 [fontname=monospace, color="red", fontcolor="red", label="red's turn\nchance for R: 1\nRRB\nBR_\n_B_\n"];
node_83 [fontname=monospace, color="red", fontcolor="red", label="blue's turn\nchance for R: 1\nRB_\nR__\n___\n"];
node_4169 [fontname=monospace, style=bold, fillcolor="orangered", style=filled, label="chance for R: 1\nR_B\nRRR\n_BB\n"];
node_485 [fontname=monospace, color="red", fontcolor="red", label="red's turn\nchance for R: 1\nRR_\n___\nB_B\n"];
node_5100 [fontname=monospace, color="black", fontcolor="black", label="red's turn\nchance for R: 0\nRRB\nBBR\nRB_\n"];
node_2435 [fontname=monospace, color="red", fontcolor="red", label="red's turn\nchance for R: 1\nRB_\nRRB\nB__\n"];
node_2579 [fontname=monospace, color="red", fontcolor="red", label="red's turn\nchance for R: 1\nRRB\n_RB\nB__\n"];
node_2548 [fontname=monospace, color="black", fontcolor="black", label="red's turn\nchance for R: 0\nRRB\nBB_\nR__\n"];
node_3928 [fontname=monospace, style=bold, fillcolor="orangered", style=filled, label="chance for R: 1\nRBR\n_RB\nB_R\n"];
node_0 [fontname=monospace, color="black", fontcolor="black", label="red's turn\nchance for R: 0.9947916666666667\n___\n___\n___\n"];
node_13 [fontname=monospace, color="black", fontcolor="black", label="red's turn\nchance for R: 0.9583333333333334\nR__\n_B_\n___\n"];
node_16 [fontname=monospace, color="red", fontcolor="red", label="red's turn\nchance for R: 1\nR__\n___\n_B_\n"];
node_383 [fontname=monospace, color="red", fontcolor="red", label="red's turn\nchance for R: 1\nR_B\nR_B\n___\n"];
node_379 [fontname=monospace, color="red", fontcolor="red", label="red's turn\nchance for R: 1\nRRB\n___\nB__\n"];
node_384 [fontname=monospace, color="red", fontcolor="red", label="red's turn\nchance for R: 1\nR_B\nR__\nB__\n"];
node_10 [fontname=monospace, color="red", fontcolor="red", label="red's turn\nchance for R: 1\nRB_\n___\n___\n"];
node_1202 [fontname=monospace, color="black", fontcolor="black", label="blue's turn\nchance for R: 0.75\nRRB\n_B_\nR__\n"];
node_338 [fontname=monospace, color="red", fontcolor="red", label="red's turn\nchance for R: 1\nRBR\n___\n_B_\n"];
node_1425 [fontname=monospace, style=bold, fillcolor="orangered", style=filled, label="chance for R: 1\nRRR\n__B\n_B_\n"];
node_2437 [fontname=monospace, color="red", fontcolor="red", label="red's turn\nchance for R: 1\nRB_\nRRB\n__B\n"];
node_2436 [fontname=monospace, color="red", fontcolor="red", label="red's turn\nchance for R: 1\nRB_\nRRB\n_B_\n"];
node_2609 [fontname=monospace, color="red", fontcolor="red", label="red's turn\nchance for R: 1\nR_B\nRRB\nB__\n"];
node_1430 [fontname=monospace, style=bold, fillcolor="orangered", style=filled, label="chance for R: 1\nRRR\n__B\n__B\n"];
node_2567 [fontname=monospace, color="red", fontcolor="red", label="red's turn\nchance for R: 1\nRRB\n_BB\nR__\n"];
node_340 [fontname=monospace, color="red", fontcolor="red", label="red's turn\nchance for R: 1\nRBB\nR__\n___\n"];
node_342 [fontname=monospace, color="red", fontcolor="red", label="red's turn\nchance for R: 1\nRB_\nR_B\n___\n"];
node_11 [fontname=monospace, color="red", fontcolor="red", label="red's turn\nchance for R: 1\nR_B\n___\n___\n"];
node_2390 [fontname=monospace, color="red", fontcolor="red", label="red's turn\nchance for R: 1\nRBR\n_RB\n_B_\n"];
node_1305 [fontname=monospace, style=bold, fillcolor="orangered", style=filled, label="chance for R: 1\nRRR\nB__\n__B\n"];
node_412 [fontname=monospace, color="red", fontcolor="red", label="red's turn\nchance for R: 1\nRR_\nBB_\n___\n"];
node_336 [fontname=monospace, color="red", fontcolor="red", label="red's turn\nchance for R: 1\nRBR\n__B\n___\n"];
node_1470 [fontname=monospace, style=bold, fillcolor="orangered", style=filled, label="chance for R: 1\nRRR\n___\nB_B\n"];
node_2413 [fontname=monospace, color="red", fontcolor="red", label="red's turn\nchance for R: 1\nRBB\nRR_\n__B\n"];
node_2391 [fontname=monospace, color="red", fontcolor="red", label="red's turn\nchance for R: 1\nRBR\n_RB\n__B\n"];
node_2400 [fontname=monospace, color="red", fontcolor="red", label="red's turn\nchance for R: 1\nRBR\n_R_\nBB_\n"];
node_1237 [fontname=monospace, color="red", fontcolor="red", label="blue's turn\nchance for R: 1\nR_B\nRR_\n_B_\n"];
node_4071 [fontname=monospace, style=bold, fillcolor="orangered", style=filled, label="chance for R: 1\nRRB\nBRB\n_R_\n"];
node_4073 [fontname=monospace, color="red", fontcolor="red", label="blue's turn\nchance for R: 1\nRRB\nBRR\nB__\n"];
node_4002 [fontname=monospace, style=bold, fillcolor="orangered", style=filled, label="chance for R: 1\nRB_\nRRR\nBB_\n"];
node_414 [fontname=monospace, color="red", fontcolor="red", label="red's turn\nchance for R: 1\nRR_\nB__\nB__\n"];
node_3954 [fontname=monospace, style=bold, fillcolor="orangered", style=filled, label="chance for R: 1\nRBB\nRRB\nR__\n"];
node_4107 [fontname=monospace, style=bold, fillcolor="orangered", style=filled, label="chance for R: 1\nRRB\nRB_\nR_B\n"];
node_1126 [fontname=monospace, style=bold, fillcolor="orangered", style=filled, label="chance for R: 1\nRB_\nRB_\nR__\n"];
node_1290 [fontname=monospace, style=bold, fillcolor="orangered", style=filled, label="chance for R: 1\nRRR\nB_B\n___\n"];
node_3925 [fontname=monospace, style=bold, fillcolor="orangered", style=filled, label="chance for R: 1\nRBR\nR_B\nR_B\n"];
node_5097 [fontname=monospace, color="red", fontcolor="red", label="red's turn\nchance for R: 1\nRRB\nBRR\nB_B\n"];
node_486 [fontname=monospace, color="red", fontcolor="red", label="red's turn\nchance for R: 1\nR_R\n___\nBB_\n"];
node_5015 [fontname=monospace, color="red", fontcolor="red", label="red's turn\nchance for R: 1\nRBR\nBRR\n_BB\n"];
node_5413 [fontname=monospace, style=bold, fillcolor="orangered", style=filled, label="chance for R: 1\nRBR\nRRB\nRBB\n"];
node_5429 [fontname=monospace, color="black", fontcolor="black", label="blue's turn\nchance for R: 0\nRRB\nBBR\nRBR\n"];
node_5402 [fontname=monospace, style=bold, fillcolor="orangered", style=filled, label="chance for R: 1\nRBR\nBRR\nBBR\n"];
node_1375 [fontname=monospace, style=bold, fillcolor="orangered", style=filled, label="chance for R: 1\nRRR\n_B_\n__B\n"];
node_449 [fontname=monospace, color="red", fontcolor="red", label="red's turn\nchance for R: 1\nR_R\n_B_\n__B\n"];
node_497 [fontname=monospace, color="red", fontcolor="red", label="red's turn\nchance for R: 1\nR_R\n___\n_BB\n"];
node_1360 [fontname=monospace, style=bold, fillcolor="orangered", style=filled, label="chance for R: 1\nRRR\n_BB\n___\n"];
node_4124 [fontname=monospace, style=bold, fillcolor="orangered", style=filled, label="chance for R: 1\nRRB\n_RB\nBR_\n"];
node_5411 [fontname=monospace, style=bold, fillcolor="orangered", style=filled, label="chance for R: 1\nRBR\nRRB\nBBR\n"];
node_132 [fontname=monospace, color="red", fontcolor="red", label="blue's turn\nchance for R: 1\nR_R\n___\n__B\n"];
node_382 [fontname=monospace, color="red", fontcolor="red", label="red's turn\nchance for R: 1\nR_B\nRB_\n___\n"];
node_1111 [fontname=monospace, color="red", fontcolor="red", label="blue's turn\nchance for R: 1\nRBR\n_R_\n_B_\n"];
node_1129 [fontname=monospace, color="red", fontcolor="red", label="blue's turn\nchance for R: 1\nRB_\nRRB\n___\n"];
node_14 [fontname=monospace, color="red", fontcolor="red", label="red's turn\nchance for R: 1\nR__\n__B\n___\n"];
node_2540 [fontname=monospace, color="red", fontcolor="red", label="red's turn\nchance for R: 1\nRRB\nBRB\n___\n"];
node_5096 [fontname=monospace, color="red", fontcolor="red", label="red's turn\nchance for R: 1\nRRB\nBRR\nBB_\n"];
node_443 [fontname=monospace, color="red", fontcolor="red", label="red's turn\nchance for R: 1\nRR_\n_B_\nB__\n"];
node_2617 [fontname=monospace, color="red", fontcolor="red", label="red's turn\nchance for R: 1\nR_B\nRR_\nB_B\n"];
node_5430 [fontname=monospace, color="black", fontcolor="black", label="blue's turn\nchance for R: 0\nRRB\nBBR\nRRB\n"];
node_421 [fontname=monospace, color="red", fontcolor="red", label="red's turn\nchance for R: 1\nR_R\nB__\n__B\n"];
node_1242 [fontname=monospace, color="red", fontcolor="red", label="blue's turn\nchance for R: 1\nR_B\nR_R\n__B\n"];
node_2568 [fontname=monospace, color="red", fontcolor="red", label="red's turn\nchance for R: 1\nRRB\n_B_\nRB_\n"];
node_344 [fontname=monospace, color="red", fontcolor="red", label="red's turn\nchance for R: 1\nRB_\nR__\n_B_\n"];
node_2443 [fontname=monospace, color="red", fontcolor="red", label="red's turn\nchance for R: 1\nRB_\nRR_\nB_B\n"];
node_469 [fontname=monospace, color="red", fontcolor="red", label="red's turn\nchance for R: 1\nR_R\n__B\nB__\n"];
node_2448 [fontname=monospace, color="red", fontcolor="red", label="red's turn\nchance for R: 1\nRB_\nRR_\n_BB\n"];
node_2602 [fontname=monospace, color="red", fontcolor="red", label="red's turn\nchance for R: 1\nR_B\nRBR\n__B\n"];
node_3997 [fontname=monospace, style=bold, fillcolor="orangered", style=filled, label="chance for R: 1\nRB_\nRRB\nR_B\n"];
node_4008 [fontname=monospace, style=bold, fillcolor="orangered", style=filled, label="chance for R: 1\nRB_\nRRR\n_BB\n"];
node_3943 [fontname=monospace, style=bold, fillcolor="orangered", style=filled, label="chance for R: 1\nRBR\n_R_\nBBR\n"];
node_3931 [fontname=monospace, style=bold, fillcolor="orangered", style=filled, label="chance for R: 1\nRBR\n_RB\nR_B\n"];
node_2393 [fontname=monospace, color="red", fontcolor="red", label="red's turn\nchance for R: 1\nRBR\n__B\nR_B\n"];
node_448 [fontname=monospace, color="red", fontcolor="red", label="red's turn\nchance for R: 1\nR_R\n_B_\n_B_\n"];
node_1 [fontname=monospace, color="black", fontcolor="black", label="blue's turn\nchance for R: 0.9947916666666667\nR__\n___\n___\n"];
node_3870 [fontname=monospace, style=bold, fillcolor="orangered", style=filled, label="chance for R: 1\nRBR\nBRB\nR__\n"];
node_4137 [fontname=monospace, style=bold, fillcolor="orangered", style=filled, label="chance for R: 1\nRRB\n_R_\nBBR\n"];
node_3907 [fontname=monospace, style=bold, fillcolor="orangered", style=filled, label="chance for R: 1\nRBR\nRB_\nR_B\n"];
node_442 [fontname=monospace, color="red", fontcolor="red", label="red's turn\nchance for R: 1\nRR_\n_BB\n___\n"];
node_484 [fontname=monospace, color="red", fontcolor="red", label="red's turn\nchance for R: 1\nRR_\n___\nBB_\n"];
node_1101 [fontname=monospace, color="red", fontcolor="red", label="blue's turn\nchance for R: 1\nRBR\n_RB\n___\n"];
node_2442 [fontname=monospace, color="red", fontcolor="red", label="red's turn\nchance for R: 1\nRB_\nRR_\nBB_\n"];
node_471 [fontname=monospace, color="red", fontcolor="red", label="red's turn\nchance for R: 1\nR_R\n__B\n__B\n"];
node_1300 [fontname=monospace, style=bold, fillcolor="orangered", style=filled, label="chance for R: 1\nRRR\nB__\n_B_\n"];
node_2409 [fontname=monospace, color="red", fontcolor="red", label="red's turn\nchance for R: 1\nRBR\n___\nRBB\n"];
node_1370 [fontname=monospace, style=bold, fillcolor="orangered", style=filled, label="chance for R: 1\nRRR\n_B_\n_B_\n"];
node_3994 [fontname=monospace, style=bold, fillcolor="orangered", style=filled, label="chance for R: 1\nRB_\nRRB\nB_R\n"];
node_1137 [fontname=monospace, color="red", fontcolor="red", label="blue's turn\nchance for R: 1\nRB_\nRR_\n_B_\n"];
node_386 [fontname=monospace, color="red", fontcolor="red", label="red's turn\nchance for R: 1\nR_B\nR__\n__B\n"];
node_5012 [fontname=monospace, color="red", fontcolor="red", label="red's turn\nchance for R: 1\nRBR\nBRR\nBB_\n"];
node_446 [fontname=monospace, color="red", fontcolor="red", label="red's turn\nchance for R: 1\nR_R\n_BB\n___\n"];
node_2590 [fontname=monospace, color="red", fontcolor="red", label="red's turn\nchance for R: 1\nRRB\n_R_\nBB_\n"];
node_90 [fontname=monospace, color="red", fontcolor="red", label="blue's turn\nchance for R: 1\nR_B\nR__\n___\n"];
node_5404 [fontname=monospace, style=bold, fillcolor="orangered", style=filled, label="chance for R: 1\nRBR\nBRR\nRBB\n"];
node_377 -> node_1202 [color="black"];
node_17 -> node_132 [color="red"];
node_2417 -> node_3963 [color="red"];
node_2543 -> node_4081 [color="red"];
node_2591 -> node_4139 [color="red"];
node_2352 -> node_3876 [color="red"];
node_5049 -> node_5413 [color="red"];
node_2350 -> node_3870 [color="red"];
node_4082 -> node_5100 [color="black"];
node_4082 -> node_5101 [color="black"];
node_12 -> node_96 [color="red"];
node_385 -> node_1237 [color="red"];
node_470 -> node_1425 [color="red"];
node_1118 -> node_2361 [color="red"];
node_1118 -> node_2379 [color="red"];
node_1118 -> node_2393 [color="red"];
node_1118 -> node_2409 [color="red"];
node_2410 -> node_3954 [color="red"];
node_420 -> node_1300 [color="red"];
node_416 -> node_1305 [color="red"];
node_2541 -> node_4073 [color="red"];
node_103 -> node_377 [color="black"];
node_103 -> node_412 [color="red"];
node_103 -> node_442 [color="red"];
node_103 -> node_443 [color="red"];
node_103 -> node_444 [color="red"];
node_103 -> node_445 [color="red"];
node_2411 -> node_3957 [color="red"];
node_2569 -> node_4107 [color="red"];
node_5045 -> node_5411 [color="red"];
node_1195 -> node_2540 [color="red"];
node_1195 -> node_2541 [color="red"];
node_1195 -> node_2542 [color="red"];
node_1195 -> node_2543 [color="red"];
node_1233 -> node_2411 [color="red"];
node_1233 -> node_2609 [color="red"];
node_1233 -> node_2616 [color="red"];
node_1233 -> node_2617 [color="red"];
node_125 -> node_338 [color="red"];
node_125 -> node_420 [color="red"];
node_125 -> node_448 [color="red"];
node_125 -> node_470 [color="red"];
node_125 -> node_486 [color="red"];
node_125 -> node_497 [color="red"];
node_5101 -> node_5430 [color="black"];
node_466 -> node_1420 [color="red"];
node_1211 -> node_2541 [color="red"];
node_1211 -> node_2579 [color="red"];
node_1211 -> node_2590 [color="red"];
node_1211 -> node_2591 [color="red"];
node_444 -> node_1370 [color="red"];
node_2619 -> node_4165 [color="red"];
node_2389 -> node_3928 [color="red"];
node_343 -> node_1133 [color="red"];
node_111 -> node_336 [color="red"];
node_111 -> node_418 [color="red"];
node_111 -> node_446 [color="red"];
node_111 -> node_469 [color="red"];
node_111 -> node_470 [color="red"];
node_111 -> node_471 [color="red"];
node_2379 -> node_3907 [color="red"];
node_345 -> node_1141 [color="red"];
node_1141 -> node_2413 [color="red"];
node_1141 -> node_2437 [color="red"];
node_1141 -> node_2443 [color="red"];
node_1141 -> node_2448 [color="red"];
node_413 -> node_1290 [color="red"];
node_2412 -> node_3960 [color="red"];
node_2407 -> node_3952 [color="red"];
node_3876 -> node_5012 [color="red"];
node_3876 -> node_5015 [color="red"];
node_1120 -> node_2410 [color="red"];
node_1120 -> node_2411 [color="red"];
node_1120 -> node_2412 [color="red"];
node_1120 -> node_2413 [color="red"];
node_1133 -> node_2411 [color="red"];
node_1133 -> node_2435 [color="red"];
node_1133 -> node_2442 [color="red"];
node_1133 -> node_2443 [color="red"];
node_15 -> node_117 [color="red"];
node_117 -> node_379 [color="red"];
node_117 -> node_414 [color="red"];
node_117 -> node_443 [color="red"];
node_117 -> node_466 [color="red"];
node_117 -> node_484 [color="red"];
node_117 -> node_485 [color="red"];
node_339 -> node_1118 [color="red"];
node_3921 -> node_5045 [color="red"];
node_3921 -> node_5049 [color="red"];
node_2616 -> node_4163 [color="red"];
node_96 -> node_376 [color="red"];
node_96 -> node_412 [color="red"];
node_96 -> node_413 [color="red"];
node_96 -> node_414 [color="red"];
node_96 -> node_415 [color="red"];
node_96 -> node_416 [color="red"];
node_2622 -> node_4169 [color="red"];
node_418 -> node_1290 [color="red"];
node_487 -> node_1470 [color="red"];
node_341 -> node_1126 [color="red"];
node_2610 -> node_4159 [color="red"];
node_376 -> node_1195 [color="red"];
node_445 -> node_1375 [color="red"];
node_2361 -> node_3880 [color="red"];
node_415 -> node_1300 [color="red"];
node_2623 -> node_4169 [color="red"];
node_2542 -> node_4078 [color="red"];
node_83 -> node_340 [color="red"];
node_83 -> node_341 [color="red"];
node_83 -> node_342 [color="red"];
node_83 -> node_343 [color="red"];
node_83 -> node_344 [color="red"];
node_83 -> node_345 [color="red"];
node_485 -> node_1470 [color="red"];
node_5100 -> node_5429 [color="black"];
node_2435 -> node_3994 [color="red"];
node_2579 -> node_4124 [color="red"];
node_2548 -> node_4082 [color="black"];
node_0 -> node_1 [color="black"];
node_13 -> node_103 [color="black"];
node_16 -> node_125 [color="red"];
node_383 -> node_1230 [color="red"];
node_379 -> node_1211 [color="red"];
node_384 -> node_1233 [color="red"];
node_10 -> node_83 [color="red"];
node_1202 -> node_2548 [color="black"];
node_1202 -> node_2567 [color="red"];
node_1202 -> node_2568 [color="red"];
node_1202 -> node_2569 [color="red"];
node_338 -> node_1111 [color="red"];
node_2437 -> node_3997 [color="red"];
node_2436 -> node_3921 [color="red"];
node_2609 -> node_4158 [color="red"];
node_2567 -> node_4100 [color="red"];
node_340 -> node_1120 [color="red"];
node_342 -> node_1129 [color="red"];
node_11 -> node_90 [color="red"];
node_2390 -> node_3921 [color="red"];
node_412 -> node_1285 [color="red"];
node_336 -> node_1101 [color="red"];
node_2413 -> node_3963 [color="red"];
node_2391 -> node_3931 [color="red"];
node_2400 -> node_3943 [color="red"];
node_1237 -> node_2412 [color="red"];
node_1237 -> node_2610 [color="red"];
node_1237 -> node_2616 [color="red"];
node_1237 -> node_2622 [color="red"];
node_4073 -> node_5096 [color="red"];
node_4073 -> node_5097 [color="red"];
node_414 -> node_1295 [color="red"];
node_5097 -> node_5427 [color="red"];
node_486 -> node_1465 [color="red"];
node_5015 -> node_5404 [color="red"];
node_449 -> node_1375 [color="red"];
node_497 -> node_1495 [color="red"];
node_132 -> node_339 [color="red"];
node_132 -> node_421 [color="red"];
node_132 -> node_449 [color="red"];
node_132 -> node_471 [color="red"];
node_132 -> node_487 [color="red"];
node_132 -> node_497 [color="red"];
node_382 -> node_1226 [color="red"];
node_1111 -> node_2352 [color="red"];
node_1111 -> node_2390 [color="red"];
node_1111 -> node_2400 [color="red"];
node_1111 -> node_2407 [color="red"];
node_1129 -> node_2410 [color="red"];
node_1129 -> node_2435 [color="red"];
node_1129 -> node_2436 [color="red"];
node_1129 -> node_2437 [color="red"];
node_14 -> node_111 [color="red"];
node_2540 -> node_4071 [color="red"];
node_5096 -> node_5426 [color="red"];
node_443 -> node_1365 [color="red"];
node_2617 -> node_4165 [color="red"];
node_421 -> node_1305 [color="red"];
node_1242 -> node_2417 [color="red"];
node_1242 -> node_2602 [color="red"];
node_1242 -> node_2619 [color="red"];
node_1242 -> node_2623 [color="red"];
node_2568 -> node_4104 [color="red"];
node_344 -> node_1137 [color="red"];
node_2443 -> node_4004 [color="red"];
node_469 -> node_1420 [color="red"];
node_2448 -> node_4008 [color="red"];
node_2602 -> node_4150 [color="red"];
node_2393 -> node_3925 [color="red"];
node_2393 -> node_3931 [color="red"];
node_448 -> node_1370 [color="red"];
node_1 -> node_10 [color="red"];
node_1 -> node_11 [color="red"];
node_1 -> node_12 [color="red"];
node_1 -> node_13 [color="black"];
node_1 -> node_14 [color="red"];
node_1 -> node_15 [color="red"];
node_1 -> node_16 [color="red"];
node_1 -> node_17 [color="red"];
node_442 -> node_1360 [color="red"];
node_484 -> node_1465 [color="red"];
node_1101 -> node_2350 [color="red"];
node_1101 -> node_2389 [color="red"];
node_1101 -> node_2390 [color="red"];
node_1101 -> node_2391 [color="red"];
node_2442 -> node_4002 [color="red"];
node_471 -> node_1430 [color="red"];
node_2409 -> node_3950 [color="red"];
node_2409 -> node_3952 [color="red"];
node_1137 -> node_2412 [color="red"];
node_1137 -> node_2436 [color="red"];
node_1137 -> node_2442 [color="red"];
node_1137 -> node_2448 [color="red"];
node_386 -> node_1242 [color="red"];
node_5012 -> node_5402 [color="red"];
node_446 -> node_1360 [color="red"];
node_2590 -> node_4137 [color="red"];
node_90 -> node_340 [color="red"];
node_90 -> node_382 [color="red"];
node_90 -> node_383 [color="red"];
node_90 -> node_384 [color="red"];
node_90 -> node_385 [color="red"];
node_90 -> node_386 [color="red"];
}
